id;numero;solde;titulaire_id
1;connect;SMTP;1
2;integrate Chicken;Rubber;2
3;Chilean;Borders SSL Card;3
4;Beauty;Movies USB programming;4
5;hard Frozen;Plastic Arizona;5
6;Dollar;solid content;6
7;bandwidth cyan;connecting copy;7
8;Versatile ivory withdrawal;analyzer architectures;8
9;Infrastructure Ramp Health;yellow;9
10;Baby niches;Rica Investment;10
